Connecting to host 192.168.1.31, port 5201
[  4] local 192.168.1.4 port 61197 connected to 192.168.1.31 port 5201
[ ID] Interval           Transfer     Bandwidth
[  4]   0.00-1.01   sec  9.62 MBytes  80.2 Mbits/sec                  
[  4]   1.01-2.00   sec  14.9 MBytes   125 Mbits/sec                  
[  4]   2.00-3.00   sec  14.6 MBytes   123 Mbits/sec                  
[  4]   3.00-4.00   sec  16.1 MBytes   135 Mbits/sec                  
[  4]   4.00-5.01   sec  17.4 MBytes   144 Mbits/sec                  
[  4]   5.01-6.01   sec  18.0 MBytes   151 Mbits/sec                  
[  4]   6.01-7.01   sec  18.0 MBytes   151 Mbits/sec                  
[  4]   7.01-8.00   sec  17.6 MBytes   149 Mbits/sec                  
[  4]   8.00-9.00   sec  17.9 MBytes   150 Mbits/sec                  
[  4]   9.00-10.00  sec  18.1 MBytes   152 Mbits/sec                  
- - - - - - - - - - - - - - - - - - - - - - - - -
[ ID] Interval           Transfer     Bandwidth
[  4]   0.00-10.00  sec   162 MBytes   136 Mbits/sec                  sender
[  4]   0.00-10.00  sec   162 MBytes   136 Mbits/sec                  receiver

iperf Done.
